{
  "account": {
    "type": "identity",
    "keyBook": "acc://blockportal/book0",
    "url": "acc://blockportal",
    "authorities": [
      {
        "url": "acc://blockportal/book0"
      }
    ]
  },
  "chainState": [
    {
      "name": "main",
      "type": "transaction",
      "height": 1,
      "count": 1,
      "roots": [
        "bf006da33a2a899530471d4a0e88d8eca2c5f49c092828e1344223e3cf633867"
      ]
    },
    {
      "name": "minor-main-index",
      "type": "index",
      "height": 1,
      "count": 1,
      "roots": [
        "02e0012000000000000000000000000000000000000000000000000000000000"
      ]
    },
    {
      "name": "signature",
      "type": "transaction",
      "height": 2,
      "count": 2,
      "roots": [
        "cc360b6231d6b7eea042c70d8691ea6d00ffa590ab96a6f7edd2ad6c49968978",
        "b7d58d3a2d39e712c5e67a3057a66d4c894d5d0ff3913c2c47c3bf853b24398d"
      ]
    }
  ],
  "receipt": {
    "localBlock": 66,
    "receipt": {
      "start": "d2f09f8c9e1025d9df4940bd85d14eadb7c29a71461e50aadd05205359595f9c",
      "result": "6a3b55416de3556fb57e02fa717b78be967980a763a60870aa99888cc2f332b5",
      "entries": [
        {
          "right": true,
          "hash": "bf006da33a2a899530471d4a0e88d8eca2c5f49c092828e1344223e3cf633867"
        },
        {
          "right": true,
          "hash": "7b00c49b10228b020b87352d887a4c3fd3526f32581151dbb955c50aea1631c4"
        },
        {
          "hash": "9431be0a2dc0515619ee0e193f7fc745d056f22bbea92b0e592a6b4b8c52bf7e"
        },
        {
          "hash": "b50b13e256367c8abfc49c64f63465f90bc6e96841913ac5c305bc79d44607cb"
        },
        {
          "hash": "782fa06f37ea0c7df5c952abb5a7315a7370af6b1109474faab9b8eb75a99f8c"
        },
        {
          "right": true,
          "hash": "317ba12c3d07d5138d10fbc7cd6370737ba36a0c1dbfd3b14d4506ff4a2260b9"
        },
        {
          "right": true,
          "hash": "64e4eb549bdc925469f2e0a5c6fc7b99decadb93d546a76433f38c946445d5e6"
        },
        {
          "hash": "60fb0cda5b8ac1ec4a00c35c86a5ceb1629b4e9b10218fe3053633350e6b7c20"
        },
        {
          "hash": "795d2cd1b003f41ba26a8e95f38cce2cd3a28d82c4d07ab74bbb68350136ba37"
        },
        {
          "hash": "86b657c23f59b7136ca6b007a640656c9f4c9035346a53e9f3a4e5c5ce66a66e"
        },
        {
          "hash": "e9d40c2edd6231c8ebb3b5b3699eac9752525c45effd304a3fee9b6ef59b1deb"
        },
        {
          "hash": "c5830991e5e963231df3033dc6c7e09a207afc192db01e87df0da7be98e9889a"
        },
        {
          "hash": "2568434910f365a987dfacc8169c2c28a5966bb32f6796b7bede99393eefe59a"
        },
        {
          "right": true,
          "hash": "226a9b81c26864726080965b64895f1014cf02dfbfced604b50e35fc4577e61d"
        },
        {
          "hash": "8143047eeb3d728b3c63a58a7945cb59e25b42f2b0702d715b8ba72ed47add17"
        },
        {
          "right": true,
          "hash": "7eab7f8d62cfbf93a2b60d4dc03721af14dcb98ed2c22b83e4061e4468ae6a69"
        },
        {
          "hash": "8b5aa6747d40da624396bd0f5258bb8f6c62a085e1c1a81e4939a4c8c089845b"
        },
        {
          "hash": "42bad8f8c4a6eecebd675a45076d2509f1d25d25e19c4e246a1de167c9e0037d"
        }
      ]
    }
  }
}
